<?xml version="1.0" encoding="UTF-8" standalone="no"?>
<!DOCTYPE svg PUBLIC "-//W3C//DTD SVG 1.1//EN" "http://www.w3.org/Graphics/SVG/1.1/DTD/svg11.dtd">
<svg xmlns="http://www.w3.org/2000/svg" xmlns:xlink="http://www.w3.org/1999/xlink" xmlns:serif="http://www.serif.com/" width="100%" height="100%" viewBox="0 0 300 300" version="1.1" xml:space="preserve" style="fill-rule:evenodd;clip-rule:evenodd;stroke-linecap:round;stroke-linejoin:round;stroke-miterlimit:1.5;">
  <circle cx="150" cy="150" r="100" style="fill:#cccffa;stroke:#000;stroke-width:5px;"/>
  <path d="M150,71.794c0,-8.767 0,-20.187 0,-20.187" style="fill:none;stroke:#000;stroke-width:5px;"/>
  <path d="M150,249.614c0,-8.767 0,-20.188 0,-20.188" style="fill:none;stroke:#000;stroke-width:5px;"/>
  <path d="M105.545,73.612c-2.192,-3.796 -5.047,-8.741 -5.047,-8.741" style="fill:none;stroke:#000;stroke-width:5px;"/>
  <path d="M199.502,236.35c-2.192,-3.796 -5.047,-8.742 -5.047,-8.742" style="fill:none;stroke:#000;stroke-width:5px;"/>
  <path d="M73.002,106.155c-3.796,-2.191 -8.741,-5.046 -8.741,-5.046" style="fill:none;stroke:#000;stroke-width:5px;"/>
  <path d="M235.739,200.112c-3.796,-2.192 -8.741,-5.047 -8.741,-5.047" style="fill:none;stroke:#000;stroke-width:5px;"/>
  <path d="M71.184,150.61c-8.767,0 -20.187,0 -20.187,0" style="fill:none;stroke:#000;stroke-width:5px;"/>
  <path d="M249.003,150.61c-8.766,0 -20.187,0 -20.187,0" style="fill:none;stroke:#000;stroke-width:5px;"/>
  <path d="M73.002,195.065c-3.796,2.192 -8.741,5.047 -8.741,5.047" style="fill:none;stroke:#000;stroke-width:5px;"/>
  <path d="M235.739,101.109c-3.796,2.191 -8.741,5.046 -8.741,5.046" style="fill:none;stroke:#000;stroke-width:5px;"/>
  <path d="M105.084,228.407c-1.991,3.449 -4.586,7.943 -4.586,7.943" style="fill:none;stroke:#000;stroke-width:5px;"/>

  <path d="M150,150l40,-50" style="fill:none;stroke:#000;stroke-width:7px;"/>
  <path d="M150.808,150l39.192,30" style="fill:none;stroke:#000;stroke-width:7px;"/>
  <path d="M199.502,64.871c-2.192,3.796 -5.047,8.741 -5.047,8.741" style="fill:none;stroke:#000;stroke-width:5px;"/>
  <path d="M150.933,150l-50.933,-60" style="fill:none;stroke:#7f7f7f;stroke-width:2.5px;"/>
  <circle cx="150.933" cy="150.735" r="9.015" style="fill:#8282af;"/>
</svg>
